{
  "pacotes": [
    {
      "imagem": "@drawable/sao_paulo_sp",
      "local": "São Paulo",
      "dias": "2 dias",
      "preco": "R$ 243,99"
    },
    {
      "imagem": "@drawable/belo_rorizonte_mg",
      "local": "Belo Horizonte",
      "dias": "3 dias",
      "preco": "R$ 421,50"
    },
    {
      "imagem": "@drawable/recife_pe",
      "local": "Recife",
      "dias": "4 dias",
      "preco": "R$ 754,20"
    },
    {
      "imagem": "@drawable/rio_de_janeiro_rj",
      "local": "Rio de Janeiro",
      "dias": "6 dias",
      "preco": "R$ 243,99"
    },
    {
      "imagem": "@drawable/salvador_ba",
      "local": "Salvador",
      "dias": "5 dias",
      "preco": "R$ 899,99"
    },
    {
      "imagem": "@drawable/foz_do_iguacu_pr",
      "local": "Foz do Iguaçu",
      "dias": "1 dias",
      "preco": "R$ 289,90"
    }
  ]
}